a: {0.024784}, {0.003133}, {0.009003}
b: {0.008531}, {0.026751}, {0.000035}
c: {0.019374}, {0.002959}, {0.007111}
d: {0.108255}, {0.087895}, {0.004805}
e: {0.024971}, {0.018341}, {0.000086}
f: {0.050505}, {0.023181}, {0.008252}
g: {0.151117}, {0.049580}, {0.189318}
h: {0.000013}, {0.128670}, {0.212711}
i: {0.001659}, {0.009816}, {0.052655}
j: {0.053653}, {0.002865}, {0.227882}
k: {0.000818}, {0.111823}, {0.010513}
l: {0.059576}, {0.029163}, {0.040863}
m: {0.008811}, {0.017440}, {0.000584}
n: {0.100768}, {0.150541}, {0.000318}
o: {0.031051}, {0.004727}, {0.016207}
p: {0.022122}, {0.119372}, {0.037683}
q: {0.071684}, {0.000165}, {0.142194}
r: {0.103857}, {0.002522}, {0.029372}
s: {0.124367}, {0.120061}, {0.000614}
t: {0.034085}, {0.090995}, {0.009794}
